
./tezos-client --wait none originate sc rollup from '[PUBLIC_KEY_HASH]' of kind arith of type unit booting with  --burn-cap 9999999
Node is bootstrapped.
Estimated gas: 1800.800 units (will add 100 for safety)
Estimated storage: 6541 bytes added (will add 20 for safety)
Operation successfully injected in the node.
Operation hash is '[OPERATION_HASH]'
NOT waiting for the operation to be included.
Use command
  tezos-client wait for [OPERATION_HASH] to be included --confirmations 1 --branch [BLOCK_HASH]
and/or an external block explorer to make sure that it has been included.
This sequence of operations was run:
  Manager signed operations:
    From: [PUBLIC_KEY_HASH]
    Fee to the baker: ꜩ0.000428
    Expected counter: 1
    Gas limit: 1901
    Storage limit: 6561 bytes
    Balance updates:
      [PUBLIC_KEY_HASH] ... -ꜩ0.000428
      payload fees(the block proposer) ....... +ꜩ0.000428
    Originate smart contract rollup of kind arith and type unit with boot sector ''
      This smart contract rollup origination was successfully applied
      Consumed gas: 1800.800
      Storage size: 6541 bytes
      Address: [SC_ROLLUP_HASH]
      Balance updates:
        [PUBLIC_KEY_HASH] ... -ꜩ1.63525
        storage fees ........................... +ꜩ1.63525


./tezos-client rpc get '/chains/main/blocks/head/context/sc_rollup/[SC_ROLLUP_HASH]/initial_level'
2

./tezos-sc-rollup-client-alpha rpc get /local/last_published_commitment
{ "commitment":
    { "compressed_state":
        "scs11VNjWyZw4Tgbvsom8epQbox86S2CKkE1UAZkXMM7Pj8MQMLzMf",
      "inbox_level": 32,
      "predecessor": "[SC_ROLLUP_COMMITMENT_HASH]",
      "number_of_messages": 0, "number_of_ticks": 0 },
  "hash": "[SC_ROLLUP_COMMITMENT_HASH]",
  "published_at_level": 35 }

./tezos-sc-rollup-client-alpha rpc get /local/last_published_commitment
{ "commitment":
    { "compressed_state":
        "scs11VNjWyZw4Tgbvsom8epQbox86S2CKkE1UAZkXMM7Pj8MQMLzMf",
      "inbox_level": 32,
      "predecessor": "[SC_ROLLUP_COMMITMENT_HASH]",
      "number_of_messages": 0, "number_of_ticks": 0 },
  "hash": "[SC_ROLLUP_COMMITMENT_HASH]",
  "published_at_level": 35 }
