
./tezos-client --wait none originate sc rollup from '[PUBLIC_KEY_HASH]' of kind arith of type unit booting with  --burn-cap 9999999
Node is bootstrapped.
Estimated gas: 1800.800 units (will add 100 for safety)
Estimated storage: 6541 bytes added (will add 20 for safety)
Operation successfully injected in the node.
Operation hash is '[OPERATION_HASH]'
NOT waiting for the operation to be included.
Use command
  tezos-client wait for [OPERATION_HASH] to be included --confirmations 1 --branch [BLOCK_HASH]
and/or an external block explorer to make sure that it has been included.
This sequence of operations was run:
  Manager signed operations:
    From: [PUBLIC_KEY_HASH]
    Fee to the baker: ꜩ0.000428
    Expected counter: 1
    Gas limit: 1901
    Storage limit: 6561 bytes
    Balance updates:
      [PUBLIC_KEY_HASH] ... -ꜩ0.000428
      payload fees(the block proposer) ....... +ꜩ0.000428
    Originate smart contract rollup of kind arith and type unit with boot sector ''
      This smart contract rollup origination was successfully applied
      Consumed gas: 1800.800
      Storage size: 6541 bytes
      Address: [SC_ROLLUP_HASH]
      Balance updates:
        [PUBLIC_KEY_HASH] ... -ꜩ1.63525
        storage fees ........................... +ꜩ1.63525


./tezos-client rpc get '/chains/main/blocks/head/context/sc_rollup/[SC_ROLLUP_HASH]/initial_level'
2

./tezos-client --wait none send sc rollup message 'text:["CAFEBABE"]' from bootstrap1 to '[SC_ROLLUP_HASH]'
Node is bootstrapped.
Estimated gas: 1651.742 units (will add 100 for safety)
Estimated storage: no bytes added
Operation successfully injected in the node.
Operation hash is '[OPERATION_HASH]'
NOT waiting for the operation to be included.
Use command
  tezos-client wait for [OPERATION_HASH] to be included --confirmations 1 --branch [BLOCK_HASH]
and/or an external block explorer to make sure that it has been included.
This sequence of operations was run:
  Manager signed operations:
    From: [PUBLIC_KEY_HASH]
    Fee to the baker: ꜩ0.000457
    Expected counter: 2
    Gas limit: 1752
    Storage limit: 0 bytes
    Balance updates:
      [PUBLIC_KEY_HASH] ... -ꜩ0.000457
      payload fees(the block proposer) ....... +ꜩ0.000457
    Add a message to the inbox of the smart contract rollup at address [SC_ROLLUP_HASH]
      This smart contract rollup messages submission was successfully applied
      Consumed gas: 1651.870
      Resulting inbox state: 
         rollup = [SC_ROLLUP_HASH]
         level = 3
         current messages hash  = [SC_ROLLUP_INBOX_HASH]
         nb_available_messages = 1
         nb_messages_in_commitment_period = 1
         starting_level_of_current_commitment_period = 2
         message_counter = 1
         old_levels_messages = 
       content = [SC_ROLLUP_INBOX_HASH]
       index = 1
       back_pointers = [SC_ROLLUP_INBOX_HASH]
    
    


./tezos-client --wait none send sc rollup message 'text:["CAFEBABE","CAFEBABE"]' from bootstrap1 to '[SC_ROLLUP_HASH]'
Node is bootstrapped.
Estimated gas: 1652.604 units (will add 100 for safety)
Estimated storage: no bytes added
Operation successfully injected in the node.
Operation hash is '[OPERATION_HASH]'
NOT waiting for the operation to be included.
Use command
  tezos-client wait for [OPERATION_HASH] to be included --confirmations 1 --branch [BLOCK_HASH]
and/or an external block explorer to make sure that it has been included.
This sequence of operations was run:
  Manager signed operations:
    From: [PUBLIC_KEY_HASH]
    Fee to the baker: ꜩ0.000469
    Expected counter: 3
    Gas limit: 1753
    Storage limit: 0 bytes
    Balance updates:
      [PUBLIC_KEY_HASH] ... -ꜩ0.000469
      payload fees(the block proposer) ....... +ꜩ0.000469
    Add a message to the inbox of the smart contract rollup at address [SC_ROLLUP_HASH]
      This smart contract rollup messages submission was successfully applied
      Consumed gas: 1652.732
      Resulting inbox state: 
         rollup = [SC_ROLLUP_HASH]
         level = 4
         current messages hash  = [SC_ROLLUP_INBOX_HASH]
         nb_available_messages = 3
         nb_messages_in_commitment_period = 3
         starting_level_of_current_commitment_period = 2
         message_counter = 2
         old_levels_messages = 
       content = [SC_ROLLUP_INBOX_HASH]
       index = 2
       back_pointers = [SC_ROLLUP_INBOX_HASH]
      [SC_ROLLUP_INBOX_HASH]
    
    


./tezos-client --wait none send sc rollup message 'text:["CAFEBABE","CAFEBABE","CAFEBABE"]' from bootstrap1 to '[SC_ROLLUP_HASH]'
Node is bootstrapped.
Estimated gas: 1653.451 units (will add 100 for safety)
Estimated storage: no bytes added
Operation successfully injected in the node.
Operation hash is '[OPERATION_HASH]'
NOT waiting for the operation to be included.
Use command
  tezos-client wait for [OPERATION_HASH] to be included --confirmations 1 --branch [BLOCK_HASH]
and/or an external block explorer to make sure that it has been included.
This sequence of operations was run:
  Manager signed operations:
    From: [PUBLIC_KEY_HASH]
    Fee to the baker: ꜩ0.000481
    Expected counter: 4
    Gas limit: 1754
    Storage limit: 0 bytes
    Balance updates:
      [PUBLIC_KEY_HASH] ... -ꜩ0.000481
      payload fees(the block proposer) ....... +ꜩ0.000481
    Add a message to the inbox of the smart contract rollup at address [SC_ROLLUP_HASH]
      This smart contract rollup messages submission was successfully applied
      Consumed gas: 1653.451
      Resulting inbox state: 
         rollup = [SC_ROLLUP_HASH]
         level = 5
         current messages hash  = [SC_ROLLUP_INBOX_HASH]
         nb_available_messages = 6
         nb_messages_in_commitment_period = 6
         starting_level_of_current_commitment_period = 2
         message_counter = 3
         old_levels_messages = 
       content = [SC_ROLLUP_INBOX_HASH]
       index = 3
       back_pointers = [SC_ROLLUP_INBOX_HASH]
      [SC_ROLLUP_INBOX_HASH]
    
    


./tezos-client --wait none send sc rollup message 'text:["CAFEBABE","CAFEBABE","CAFEBABE","CAFEBABE"]' from bootstrap1 to '[SC_ROLLUP_HASH]'
Node is bootstrapped.
Estimated gas: 1654.091 units (will add 100 for safety)
Estimated storage: no bytes added
Operation successfully injected in the node.
Operation hash is '[OPERATION_HASH]'
NOT waiting for the operation to be included.
Use command
  tezos-client wait for [OPERATION_HASH] to be included --confirmations 1 --branch [BLOCK_HASH]
and/or an external block explorer to make sure that it has been included.
This sequence of operations was run:
  Manager signed operations:
    From: [PUBLIC_KEY_HASH]
    Fee to the baker: ꜩ0.000493
    Expected counter: 5
    Gas limit: 1755
    Storage limit: 0 bytes
    Balance updates:
      [PUBLIC_KEY_HASH] ... -ꜩ0.000493
      payload fees(the block proposer) ....... +ꜩ0.000493
    Add a message to the inbox of the smart contract rollup at address [SC_ROLLUP_HASH]
      This smart contract rollup messages submission was successfully applied
      Consumed gas: 1654.219
      Resulting inbox state: 
         rollup = [SC_ROLLUP_HASH]
         level = 6
         current messages hash  = [SC_ROLLUP_INBOX_HASH]
         nb_available_messages = 10
         nb_messages_in_commitment_period = 10
         starting_level_of_current_commitment_period = 2
         message_counter = 4
         old_levels_messages = 
       content = [SC_ROLLUP_INBOX_HASH]
       index = 4
       back_pointers = [SC_ROLLUP_INBOX_HASH]
      [SC_ROLLUP_INBOX_HASH]
      [SC_ROLLUP_INBOX_HASH]
    
    


./tezos-client --wait none send sc rollup message 'text:["CAFEBABE","CAFEBABE","CAFEBABE","CAFEBABE","CAFEBABE"]' from bootstrap1 to '[SC_ROLLUP_HASH]'
Node is bootstrapped.
Estimated gas: 1654.938 units (will add 100 for safety)
Estimated storage: no bytes added
Operation successfully injected in the node.
Operation hash is '[OPERATION_HASH]'
NOT waiting for the operation to be included.
Use command
  tezos-client wait for [OPERATION_HASH] to be included --confirmations 1 --branch [BLOCK_HASH]
and/or an external block explorer to make sure that it has been included.
This sequence of operations was run:
  Manager signed operations:
    From: [PUBLIC_KEY_HASH]
    Fee to the baker: ꜩ0.000505
    Expected counter: 6
    Gas limit: 1755
    Storage limit: 0 bytes
    Balance updates:
      [PUBLIC_KEY_HASH] ... -ꜩ0.000505
      payload fees(the block proposer) ....... +ꜩ0.000505
    Add a message to the inbox of the smart contract rollup at address [SC_ROLLUP_HASH]
      This smart contract rollup messages submission was successfully applied
      Consumed gas: 1654.938
      Resulting inbox state: 
         rollup = [SC_ROLLUP_HASH]
         level = 7
         current messages hash  = [SC_ROLLUP_INBOX_HASH]
         nb_available_messages = 15
         nb_messages_in_commitment_period = 15
         starting_level_of_current_commitment_period = 2
         message_counter = 5
         old_levels_messages = 
       content = [SC_ROLLUP_INBOX_HASH]
       index = 5
       back_pointers = [SC_ROLLUP_INBOX_HASH]
      [SC_ROLLUP_INBOX_HASH]
      [SC_ROLLUP_INBOX_HASH]
    
    


./tezos-client --wait none send sc rollup message 'text:["CAFEBABE","CAFEBABE","CAFEBABE","CAFEBABE","CAFEBABE","CAFEBABE"]' from bootstrap1 to '[SC_ROLLUP_HASH]'
Node is bootstrapped.
Estimated gas: 1655.578 units (will add 100 for safety)
Estimated storage: no bytes added
Operation successfully injected in the node.
Operation hash is '[OPERATION_HASH]'
NOT waiting for the operation to be included.
Use command
  tezos-client wait for [OPERATION_HASH] to be included --confirmations 1 --branch [BLOCK_HASH]
and/or an external block explorer to make sure that it has been included.
This sequence of operations was run:
  Manager signed operations:
    From: [PUBLIC_KEY_HASH]
    Fee to the baker: ꜩ0.000517
    Expected counter: 7
    Gas limit: 1756
    Storage limit: 0 bytes
    Balance updates:
      [PUBLIC_KEY_HASH] ... -ꜩ0.000517
      payload fees(the block proposer) ....... +ꜩ0.000517
    Add a message to the inbox of the smart contract rollup at address [SC_ROLLUP_HASH]
      This smart contract rollup messages submission was successfully applied
      Consumed gas: 1655.578
      Resulting inbox state: 
         rollup = [SC_ROLLUP_HASH]
         level = 8
         current messages hash  = [SC_ROLLUP_INBOX_HASH]
         nb_available_messages = 21
         nb_messages_in_commitment_period = 21
         starting_level_of_current_commitment_period = 2
         message_counter = 6
         old_levels_messages = 
       content = [SC_ROLLUP_INBOX_HASH]
       index = 6
       back_pointers = [SC_ROLLUP_INBOX_HASH]
      [SC_ROLLUP_INBOX_HASH]
      [SC_ROLLUP_INBOX_HASH]
    
    


./tezos-client --wait none send sc rollup message 'text:["CAFEBABE","CAFEBABE","CAFEBABE","CAFEBABE","CAFEBABE","CAFEBABE","CAFEBABE"]' from bootstrap1 to '[SC_ROLLUP_HASH]'
Node is bootstrapped.
Estimated gas: 1656.218 units (will add 100 for safety)
Estimated storage: no bytes added
Operation successfully injected in the node.
Operation hash is '[OPERATION_HASH]'
NOT waiting for the operation to be included.
Use command
  tezos-client wait for [OPERATION_HASH] to be included --confirmations 1 --branch [BLOCK_HASH]
and/or an external block explorer to make sure that it has been included.
This sequence of operations was run:
  Manager signed operations:
    From: [PUBLIC_KEY_HASH]
    Fee to the baker: ꜩ0.000529
    Expected counter: 8
    Gas limit: 1757
    Storage limit: 0 bytes
    Balance updates:
      [PUBLIC_KEY_HASH] ... -ꜩ0.000529
      payload fees(the block proposer) ....... +ꜩ0.000529
    Add a message to the inbox of the smart contract rollup at address [SC_ROLLUP_HASH]
      This smart contract rollup messages submission was successfully applied
      Consumed gas: 1656.218
      Resulting inbox state: 
         rollup = [SC_ROLLUP_HASH]
         level = 9
         current messages hash  = [SC_ROLLUP_INBOX_HASH]
         nb_available_messages = 28
         nb_messages_in_commitment_period = 28
         starting_level_of_current_commitment_period = 2
         message_counter = 7
         old_levels_messages = 
       content = [SC_ROLLUP_INBOX_HASH]
       index = 7
       back_pointers = [SC_ROLLUP_INBOX_HASH]
      [SC_ROLLUP_INBOX_HASH]
      [SC_ROLLUP_INBOX_HASH]
    
    


./tezos-client --wait none send sc rollup message 'text:["CAFEBABE","CAFEBABE","CAFEBABE","CAFEBABE","CAFEBABE","CAFEBABE","CAFEBABE","CAFEBABE"]' from bootstrap1 to '[SC_ROLLUP_HASH]'
Node is bootstrapped.
Estimated gas: 1656.858 units (will add 100 for safety)
Estimated storage: no bytes added
Operation successfully injected in the node.
Operation hash is '[OPERATION_HASH]'
NOT waiting for the operation to be included.
Use command
  tezos-client wait for [OPERATION_HASH] to be included --confirmations 1 --branch [BLOCK_HASH]
and/or an external block explorer to make sure that it has been included.
This sequence of operations was run:
  Manager signed operations:
    From: [PUBLIC_KEY_HASH]
    Fee to the baker: ꜩ0.000541
    Expected counter: 9
    Gas limit: 1757
    Storage limit: 0 bytes
    Balance updates:
      [PUBLIC_KEY_HASH] ... -ꜩ0.000541
      payload fees(the block proposer) ....... +ꜩ0.000541
    Add a message to the inbox of the smart contract rollup at address [SC_ROLLUP_HASH]
      This smart contract rollup messages submission was successfully applied
      Consumed gas: 1656.986
      Resulting inbox state: 
         rollup = [SC_ROLLUP_HASH]
         level = 10
         current messages hash  = [SC_ROLLUP_INBOX_HASH]
         nb_available_messages = 36
         nb_messages_in_commitment_period = 36
         starting_level_of_current_commitment_period = 2
         message_counter = 8
         old_levels_messages = 
       content = [SC_ROLLUP_INBOX_HASH]
       index = 8
       back_pointers = [SC_ROLLUP_INBOX_HASH]
      [SC_ROLLUP_INBOX_HASH]
      [SC_ROLLUP_INBOX_HASH]
      [SC_ROLLUP_INBOX_HASH]
    
    


./tezos-client --wait none send sc rollup message 'text:["CAFEBABE","CAFEBABE","CAFEBABE","CAFEBABE","CAFEBABE","CAFEBABE","CAFEBABE","CAFEBABE","CAFEBABE"]' from bootstrap1 to '[SC_ROLLUP_HASH]'
Node is bootstrapped.
Estimated gas: 1657.705 units (will add 100 for safety)
Estimated storage: no bytes added
Operation successfully injected in the node.
Operation hash is '[OPERATION_HASH]'
NOT waiting for the operation to be included.
Use command
  tezos-client wait for [OPERATION_HASH] to be included --confirmations 1 --branch [BLOCK_HASH]
and/or an external block explorer to make sure that it has been included.
This sequence of operations was run:
  Manager signed operations:
    From: [PUBLIC_KEY_HASH]
    Fee to the baker: ꜩ0.000553
    Expected counter: 10
    Gas limit: 1758
    Storage limit: 0 bytes
    Balance updates:
      [PUBLIC_KEY_HASH] ... -ꜩ0.000553
      payload fees(the block proposer) ....... +ꜩ0.000553
    Add a message to the inbox of the smart contract rollup at address [SC_ROLLUP_HASH]
      This smart contract rollup messages submission was successfully applied
      Consumed gas: 1657.705
      Resulting inbox state: 
         rollup = [SC_ROLLUP_HASH]
         level = 11
         current messages hash  = [SC_ROLLUP_INBOX_HASH]
         nb_available_messages = 45
         nb_messages_in_commitment_period = 45
         starting_level_of_current_commitment_period = 2
         message_counter = 9
         old_levels_messages = 
       content = [SC_ROLLUP_INBOX_HASH]
       index = 9
       back_pointers = [SC_ROLLUP_INBOX_HASH]
      [SC_ROLLUP_INBOX_HASH]
      [SC_ROLLUP_INBOX_HASH]
      [SC_ROLLUP_INBOX_HASH]
    
    


./tezos-client --wait none send sc rollup message 'text:["CAFEBABE","CAFEBABE","CAFEBABE","CAFEBABE","CAFEBABE","CAFEBABE","CAFEBABE","CAFEBABE","CAFEBABE","CAFEBABE"]' from bootstrap1 to '[SC_ROLLUP_HASH]'
Node is bootstrapped.
Estimated gas: 1658.345 units (will add 100 for safety)
Estimated storage: no bytes added
Operation successfully injected in the node.
Operation hash is '[OPERATION_HASH]'
NOT waiting for the operation to be included.
Use command
  tezos-client wait for [OPERATION_HASH] to be included --confirmations 1 --branch [BLOCK_HASH]
and/or an external block explorer to make sure that it has been included.
This sequence of operations was run:
  Manager signed operations:
    From: [PUBLIC_KEY_HASH]
    Fee to the baker: ꜩ0.000565
    Expected counter: 11
    Gas limit: 1759
    Storage limit: 0 bytes
    Balance updates:
      [PUBLIC_KEY_HASH] ... -ꜩ0.000565
      payload fees(the block proposer) ....... +ꜩ0.000565
    Add a message to the inbox of the smart contract rollup at address [SC_ROLLUP_HASH]
      This smart contract rollup messages submission was successfully applied
      Consumed gas: 1658.345
      Resulting inbox state: 
         rollup = [SC_ROLLUP_HASH]
         level = 12
         current messages hash  = [SC_ROLLUP_INBOX_HASH]
         nb_available_messages = 55
         nb_messages_in_commitment_period = 55
         starting_level_of_current_commitment_period = 2
         message_counter = 10
         old_levels_messages = 
       content = [SC_ROLLUP_INBOX_HASH]
       index = 10
       back_pointers = [SC_ROLLUP_INBOX_HASH]
      [SC_ROLLUP_INBOX_HASH]
      [SC_ROLLUP_INBOX_HASH]
      [SC_ROLLUP_INBOX_HASH]
    
    


./tezos-client --wait none send sc rollup message 'text:["CAFEBABE","CAFEBABE","CAFEBABE","CAFEBABE","CAFEBABE","CAFEBABE","CAFEBABE","CAFEBABE","CAFEBABE","CAFEBABE","CAFEBABE"]' from bootstrap1 to '[SC_ROLLUP_HASH]'
Node is bootstrapped.
Estimated gas: 1658.985 units (will add 100 for safety)
Estimated storage: no bytes added
Operation successfully injected in the node.
Operation hash is '[OPERATION_HASH]'
NOT waiting for the operation to be included.
Use command
  tezos-client wait for [OPERATION_HASH] to be included --confirmations 1 --branch [BLOCK_HASH]
and/or an external block explorer to make sure that it has been included.
This sequence of operations was run:
  Manager signed operations:
    From: [PUBLIC_KEY_HASH]
    Fee to the baker: ꜩ0.000577
    Expected counter: 12
    Gas limit: 1759
    Storage limit: 0 bytes
    Balance updates:
      [PUBLIC_KEY_HASH] ... -ꜩ0.000577
      payload fees(the block proposer) ....... +ꜩ0.000577
    Add a message to the inbox of the smart contract rollup at address [SC_ROLLUP_HASH]
      This smart contract rollup messages submission was successfully applied
      Consumed gas: 1658.985
      Resulting inbox state: 
         rollup = [SC_ROLLUP_HASH]
         level = 13
         current messages hash  = [SC_ROLLUP_INBOX_HASH]
         nb_available_messages = 66
         nb_messages_in_commitment_period = 66
         starting_level_of_current_commitment_period = 2
         message_counter = 11
         old_levels_messages = 
       content = [SC_ROLLUP_INBOX_HASH]
       index = 11
       back_pointers = [SC_ROLLUP_INBOX_HASH]
      [SC_ROLLUP_INBOX_HASH]
      [SC_ROLLUP_INBOX_HASH]
      [SC_ROLLUP_INBOX_HASH]
    
    


./tezos-client --wait none send sc rollup message 'text:["CAFEBABE","CAFEBABE","CAFEBABE","CAFEBABE","CAFEBABE","CAFEBABE","CAFEBABE","CAFEBABE","CAFEBABE","CAFEBABE","CAFEBABE","CAFEBABE"]' from bootstrap1 to '[SC_ROLLUP_HASH]'
Node is bootstrapped.
Estimated gas: 1659.625 units (will add 100 for safety)
Estimated storage: no bytes added
Operation successfully injected in the node.
Operation hash is '[OPERATION_HASH]'
NOT waiting for the operation to be included.
Use command
  tezos-client wait for [OPERATION_HASH] to be included --confirmations 1 --branch [BLOCK_HASH]
and/or an external block explorer to make sure that it has been included.
This sequence of operations was run:
  Manager signed operations:
    From: [PUBLIC_KEY_HASH]
    Fee to the baker: ꜩ0.000589
    Expected counter: 13
    Gas limit: 1760
    Storage limit: 0 bytes
    Balance updates:
      [PUBLIC_KEY_HASH] ... -ꜩ0.000589
      payload fees(the block proposer) ....... +ꜩ0.000589
    Add a message to the inbox of the smart contract rollup at address [SC_ROLLUP_HASH]
      This smart contract rollup messages submission was successfully applied
      Consumed gas: 1659.625
      Resulting inbox state: 
         rollup = [SC_ROLLUP_HASH]
         level = 14
         current messages hash  = [SC_ROLLUP_INBOX_HASH]
         nb_available_messages = 78
         nb_messages_in_commitment_period = 78
         starting_level_of_current_commitment_period = 2
         message_counter = 12
         old_levels_messages = 
       content = [SC_ROLLUP_INBOX_HASH]
       index = 12
       back_pointers = [SC_ROLLUP_INBOX_HASH]
      [SC_ROLLUP_INBOX_HASH]
      [SC_ROLLUP_INBOX_HASH]
      [SC_ROLLUP_INBOX_HASH]
    
    


./tezos-client --wait none send sc rollup message 'text:["CAFEBABE","CAFEBABE","CAFEBABE","CAFEBABE","CAFEBABE","CAFEBABE","CAFEBABE","CAFEBABE","CAFEBABE","CAFEBABE","CAFEBABE","CAFEBABE","CAFEBABE"]' from bootstrap1 to '[SC_ROLLUP_HASH]'
Node is bootstrapped.
Estimated gas: 1660.265 units (will add 100 for safety)
Estimated storage: no bytes added
Operation successfully injected in the node.
Operation hash is '[OPERATION_HASH]'
NOT waiting for the operation to be included.
Use command
  tezos-client wait for [OPERATION_HASH] to be included --confirmations 1 --branch [BLOCK_HASH]
and/or an external block explorer to make sure that it has been included.
This sequence of operations was run:
  Manager signed operations:
    From: [PUBLIC_KEY_HASH]
    Fee to the baker: ꜩ0.000602
    Expected counter: 14
    Gas limit: 1761
    Storage limit: 0 bytes
    Balance updates:
      [PUBLIC_KEY_HASH] ... -ꜩ0.000602
      payload fees(the block proposer) ....... +ꜩ0.000602
    Add a message to the inbox of the smart contract rollup at address [SC_ROLLUP_HASH]
      This smart contract rollup messages submission was successfully applied
      Consumed gas: 1660.265
      Resulting inbox state: 
         rollup = [SC_ROLLUP_HASH]
         level = 15
         current messages hash  = [SC_ROLLUP_INBOX_HASH]
         nb_available_messages = 91
         nb_messages_in_commitment_period = 91
         starting_level_of_current_commitment_period = 2
         message_counter = 13
         old_levels_messages = 
       content = [SC_ROLLUP_INBOX_HASH]
       index = 13
       back_pointers = [SC_ROLLUP_INBOX_HASH]
      [SC_ROLLUP_INBOX_HASH]
      [SC_ROLLUP_INBOX_HASH]
      [SC_ROLLUP_INBOX_HASH]
    
    


./tezos-client --wait none send sc rollup message 'text:["CAFEBABE","CAFEBABE","CAFEBABE","CAFEBABE","CAFEBABE","CAFEBABE","CAFEBABE","CAFEBABE","CAFEBABE","CAFEBABE","CAFEBABE","CAFEBABE","CAFEBABE","CAFEBABE"]' from bootstrap1 to '[SC_ROLLUP_HASH]'
Node is bootstrapped.
Estimated gas: 1660.905 units (will add 100 for safety)
Estimated storage: no bytes added
Operation successfully injected in the node.
Operation hash is '[OPERATION_HASH]'
NOT waiting for the operation to be included.
Use command
  tezos-client wait for [OPERATION_HASH] to be included --confirmations 1 --branch [BLOCK_HASH]
and/or an external block explorer to make sure that it has been included.
This sequence of operations was run:
  Manager signed operations:
    From: [PUBLIC_KEY_HASH]
    Fee to the baker: ꜩ0.000614
    Expected counter: 15
    Gas limit: 1761
    Storage limit: 0 bytes
    Balance updates:
      [PUBLIC_KEY_HASH] ... -ꜩ0.000614
      payload fees(the block proposer) ....... +ꜩ0.000614
    Add a message to the inbox of the smart contract rollup at address [SC_ROLLUP_HASH]
      This smart contract rollup messages submission was successfully applied
      Consumed gas: 1660.905
      Resulting inbox state: 
         rollup = [SC_ROLLUP_HASH]
         level = 16
         current messages hash  = [SC_ROLLUP_INBOX_HASH]
         nb_available_messages = 105
         nb_messages_in_commitment_period = 105
         starting_level_of_current_commitment_period = 2
         message_counter = 14
         old_levels_messages = 
       content = [SC_ROLLUP_INBOX_HASH]
       index = 14
       back_pointers = [SC_ROLLUP_INBOX_HASH]
      [SC_ROLLUP_INBOX_HASH]
      [SC_ROLLUP_INBOX_HASH]
      [SC_ROLLUP_INBOX_HASH]
    
    


./tezos-client --wait none send sc rollup message 'text:["CAFEBABE","CAFEBABE","CAFEBABE","CAFEBABE","CAFEBABE","CAFEBABE","CAFEBABE","CAFEBABE","CAFEBABE","CAFEBABE","CAFEBABE","CAFEBABE","CAFEBABE","CAFEBABE","CAFEBABE"]' from bootstrap1 to '[SC_ROLLUP_HASH]'
Node is bootstrapped.
Estimated gas: 1661.545 units (will add 100 for safety)
Estimated storage: no bytes added
Operation successfully injected in the node.
Operation hash is '[OPERATION_HASH]'
NOT waiting for the operation to be included.
Use command
  tezos-client wait for [OPERATION_HASH] to be included --confirmations 1 --branch [BLOCK_HASH]
and/or an external block explorer to make sure that it has been included.
This sequence of operations was run:
  Manager signed operations:
    From: [PUBLIC_KEY_HASH]
    Fee to the baker: ꜩ0.000626
    Expected counter: 16
    Gas limit: 1762
    Storage limit: 0 bytes
    Balance updates:
      [PUBLIC_KEY_HASH] ... -ꜩ0.000626
      payload fees(the block proposer) ....... +ꜩ0.000626
    Add a message to the inbox of the smart contract rollup at address [SC_ROLLUP_HASH]
      This smart contract rollup messages submission was successfully applied
      Consumed gas: 1661.545
      Resulting inbox state: 
         rollup = [SC_ROLLUP_HASH]
         level = 17
         current messages hash  = [SC_ROLLUP_INBOX_HASH]
         nb_available_messages = 120
         nb_messages_in_commitment_period = 120
         starting_level_of_current_commitment_period = 2
         message_counter = 15
         old_levels_messages = 
       content = [SC_ROLLUP_INBOX_HASH]
       index = 15
       back_pointers = [SC_ROLLUP_INBOX_HASH]
      [SC_ROLLUP_INBOX_HASH]
      [SC_ROLLUP_INBOX_HASH]
      [SC_ROLLUP_INBOX_HASH]
    
    


./tezos-client --wait none send sc rollup message 'text:["CAFEBABE","CAFEBABE","CAFEBABE","CAFEBABE","CAFEBABE","CAFEBABE","CAFEBABE","CAFEBABE","CAFEBABE","CAFEBABE","CAFEBABE","CAFEBABE","CAFEBABE","CAFEBABE","CAFEBABE","CAFEBABE"]' from bootstrap1 to '[SC_ROLLUP_HASH]'
Node is bootstrapped.
Estimated gas: 1662.185 units (will add 100 for safety)
Estimated storage: no bytes added
Operation successfully injected in the node.
Operation hash is '[OPERATION_HASH]'
NOT waiting for the operation to be included.
Use command
  tezos-client wait for [OPERATION_HASH] to be included --confirmations 1 --branch [BLOCK_HASH]
and/or an external block explorer to make sure that it has been included.
This sequence of operations was run:
  Manager signed operations:
    From: [PUBLIC_KEY_HASH]
    Fee to the baker: ꜩ0.000638
    Expected counter: 17
    Gas limit: 1763
    Storage limit: 0 bytes
    Balance updates:
      [PUBLIC_KEY_HASH] ... -ꜩ0.000638
      payload fees(the block proposer) ....... +ꜩ0.000638
    Add a message to the inbox of the smart contract rollup at address [SC_ROLLUP_HASH]
      This smart contract rollup messages submission was successfully applied
      Consumed gas: 1662.313
      Resulting inbox state: 
         rollup = [SC_ROLLUP_HASH]
         level = 18
         current messages hash  = [SC_ROLLUP_INBOX_HASH]
         nb_available_messages = 136
         nb_messages_in_commitment_period = 136
         starting_level_of_current_commitment_period = 2
         message_counter = 16
         old_levels_messages = 
       content = [SC_ROLLUP_INBOX_HASH]
       index = 16
       back_pointers = [SC_ROLLUP_INBOX_HASH]
      [SC_ROLLUP_INBOX_HASH]
      [SC_ROLLUP_INBOX_HASH]
      [SC_ROLLUP_INBOX_HASH]
      [SC_ROLLUP_INBOX_HASH]
    
    


./tezos-client --wait none send sc rollup message 'text:["CAFEBABE","CAFEBABE","CAFEBABE","CAFEBABE","CAFEBABE","CAFEBABE","CAFEBABE","CAFEBABE","CAFEBABE","CAFEBABE","CAFEBABE","CAFEBABE","CAFEBABE","CAFEBABE","CAFEBABE","CAFEBABE","CAFEBABE"]' from bootstrap1 to '[SC_ROLLUP_HASH]'
Node is bootstrapped.
Estimated gas: 1663.032 units (will add 100 for safety)
Estimated storage: no bytes added
Operation successfully injected in the node.
Operation hash is '[OPERATION_HASH]'
NOT waiting for the operation to be included.
Use command
  tezos-client wait for [OPERATION_HASH] to be included --confirmations 1 --branch [BLOCK_HASH]
and/or an external block explorer to make sure that it has been included.
This sequence of operations was run:
  Manager signed operations:
    From: [PUBLIC_KEY_HASH]
    Fee to the baker: ꜩ0.00065
    Expected counter: 18
    Gas limit: 1764
    Storage limit: 0 bytes
    Balance updates:
      [PUBLIC_KEY_HASH] ... -ꜩ0.00065
      payload fees(the block proposer) ....... +ꜩ0.00065
    Add a message to the inbox of the smart contract rollup at address [SC_ROLLUP_HASH]
      This smart contract rollup messages submission was successfully applied
      Consumed gas: 1663.032
      Resulting inbox state: 
         rollup = [SC_ROLLUP_HASH]
         level = 19
         current messages hash  = [SC_ROLLUP_INBOX_HASH]
         nb_available_messages = 153
         nb_messages_in_commitment_period = 153
         starting_level_of_current_commitment_period = 2
         message_counter = 17
         old_levels_messages = 
       content = [SC_ROLLUP_INBOX_HASH]
       index = 17
       back_pointers = [SC_ROLLUP_INBOX_HASH]
      [SC_ROLLUP_INBOX_HASH]
      [SC_ROLLUP_INBOX_HASH]
      [SC_ROLLUP_INBOX_HASH]
      [SC_ROLLUP_INBOX_HASH]
    
    


./tezos-client --wait none send sc rollup message 'text:["CAFEBABE","CAFEBABE","CAFEBABE","CAFEBABE","CAFEBABE","CAFEBABE","CAFEBABE","CAFEBABE","CAFEBABE","CAFEBABE","CAFEBABE","CAFEBABE","CAFEBABE","CAFEBABE","CAFEBABE","CAFEBABE","CAFEBABE","CAFEBABE"]' from bootstrap1 to '[SC_ROLLUP_HASH]'
Node is bootstrapped.
Estimated gas: 1663.672 units (will add 100 for safety)
Estimated storage: no bytes added
Operation successfully injected in the node.
Operation hash is '[OPERATION_HASH]'
NOT waiting for the operation to be included.
Use command
  tezos-client wait for [OPERATION_HASH] to be included --confirmations 1 --branch [BLOCK_HASH]
and/or an external block explorer to make sure that it has been included.
This sequence of operations was run:
  Manager signed operations:
    From: [PUBLIC_KEY_HASH]
    Fee to the baker: ꜩ0.000662
    Expected counter: 19
    Gas limit: 1764
    Storage limit: 0 bytes
    Balance updates:
      [PUBLIC_KEY_HASH] ... -ꜩ0.000662
      payload fees(the block proposer) ....... +ꜩ0.000662
    Add a message to the inbox of the smart contract rollup at address [SC_ROLLUP_HASH]
      This smart contract rollup messages submission was successfully applied
      Consumed gas: 1663.672
      Resulting inbox state: 
         rollup = [SC_ROLLUP_HASH]
         level = 20
         current messages hash  = [SC_ROLLUP_INBOX_HASH]
         nb_available_messages = 171
         nb_messages_in_commitment_period = 171
         starting_level_of_current_commitment_period = 2
         message_counter = 18
         old_levels_messages = 
       content = [SC_ROLLUP_INBOX_HASH]
       index = 18
       back_pointers = [SC_ROLLUP_INBOX_HASH]
      [SC_ROLLUP_INBOX_HASH]
      [SC_ROLLUP_INBOX_HASH]
      [SC_ROLLUP_INBOX_HASH]
      [SC_ROLLUP_INBOX_HASH]
    
    


./tezos-client --wait none send sc rollup message 'text:["CAFEBABE","CAFEBABE","CAFEBABE","CAFEBABE","CAFEBABE","CAFEBABE","CAFEBABE","CAFEBABE","CAFEBABE","CAFEBABE","CAFEBABE","CAFEBABE","CAFEBABE","CAFEBABE","CAFEBABE","CAFEBABE","CAFEBABE","CAFEBABE","CAFEBABE"]' from bootstrap1 to '[SC_ROLLUP_HASH]'
Node is bootstrapped.
Estimated gas: 1664.312 units (will add 100 for safety)
Estimated storage: no bytes added
Operation successfully injected in the node.
Operation hash is '[OPERATION_HASH]'
NOT waiting for the operation to be included.
Use command
  tezos-client wait for [OPERATION_HASH] to be included --confirmations 1 --branch [BLOCK_HASH]
and/or an external block explorer to make sure that it has been included.
This sequence of operations was run:
  Manager signed operations:
    From: [PUBLIC_KEY_HASH]
    Fee to the baker: ꜩ0.000674
    Expected counter: 20
    Gas limit: 1765
    Storage limit: 0 bytes
    Balance updates:
      [PUBLIC_KEY_HASH] ... -ꜩ0.000674
      payload fees(the block proposer) ....... +ꜩ0.000674
    Add a message to the inbox of the smart contract rollup at address [SC_ROLLUP_HASH]
      This smart contract rollup messages submission was successfully applied
      Consumed gas: 1664.312
      Resulting inbox state: 
         rollup = [SC_ROLLUP_HASH]
         level = 21
         current messages hash  = [SC_ROLLUP_INBOX_HASH]
         nb_available_messages = 190
         nb_messages_in_commitment_period = 190
         starting_level_of_current_commitment_period = 2
         message_counter = 19
         old_levels_messages = 
       content = [SC_ROLLUP_INBOX_HASH]
       index = 19
       back_pointers = [SC_ROLLUP_INBOX_HASH]
      [SC_ROLLUP_INBOX_HASH]
      [SC_ROLLUP_INBOX_HASH]
      [SC_ROLLUP_INBOX_HASH]
      [SC_ROLLUP_INBOX_HASH]
    
    


./tezos-client --wait none send sc rollup message 'text:["CAFEBABE","CAFEBABE","CAFEBABE","CAFEBABE","CAFEBABE","CAFEBABE","CAFEBABE","CAFEBABE","CAFEBABE","CAFEBABE","CAFEBABE","CAFEBABE","CAFEBABE","CAFEBABE","CAFEBABE","CAFEBABE","CAFEBABE","CAFEBABE","CAFEBABE","CAFEBABE"]' from bootstrap1 to '[SC_ROLLUP_HASH]'
Node is bootstrapped.
Estimated gas: 1664.952 units (will add 100 for safety)
Estimated storage: no bytes added
Operation successfully injected in the node.
Operation hash is '[OPERATION_HASH]'
NOT waiting for the operation to be included.
Use command
  tezos-client wait for [OPERATION_HASH] to be included --confirmations 1 --branch [BLOCK_HASH]
and/or an external block explorer to make sure that it has been included.
This sequence of operations was run:
  Manager signed operations:
    From: [PUBLIC_KEY_HASH]
    Fee to the baker: ꜩ0.000686
    Expected counter: 21
    Gas limit: 1765
    Storage limit: 0 bytes
    Balance updates:
      [PUBLIC_KEY_HASH] ... -ꜩ0.000686
      payload fees(the block proposer) ....... +ꜩ0.000686
    Add a message to the inbox of the smart contract rollup at address [SC_ROLLUP_HASH]
      This smart contract rollup messages submission was successfully applied
      Consumed gas: 1664.952
      Resulting inbox state: 
         rollup = [SC_ROLLUP_HASH]
         level = 22
         current messages hash  = [SC_ROLLUP_INBOX_HASH]
         nb_available_messages = 210
         nb_messages_in_commitment_period = 210
         starting_level_of_current_commitment_period = 2
         message_counter = 20
         old_levels_messages = 
       content = [SC_ROLLUP_INBOX_HASH]
       index = 20
       back_pointers = [SC_ROLLUP_INBOX_HASH]
      [SC_ROLLUP_INBOX_HASH]
      [SC_ROLLUP_INBOX_HASH]
      [SC_ROLLUP_INBOX_HASH]
      [SC_ROLLUP_INBOX_HASH]
    
    


./tezos-client --wait none send sc rollup message 'text:["CAFEBABE","CAFEBABE","CAFEBABE","CAFEBABE","CAFEBABE","CAFEBABE","CAFEBABE","CAFEBABE","CAFEBABE","CAFEBABE","CAFEBABE","CAFEBABE","CAFEBABE","CAFEBABE","CAFEBABE","CAFEBABE","CAFEBABE","CAFEBABE","CAFEBABE","CAFEBABE","CAFEBABE"]' from bootstrap1 to '[SC_ROLLUP_HASH]'
Node is bootstrapped.
Estimated gas: 1665.592 units (will add 100 for safety)
Estimated storage: no bytes added
Operation successfully injected in the node.
Operation hash is '[OPERATION_HASH]'
NOT waiting for the operation to be included.
Use command
  tezos-client wait for [OPERATION_HASH] to be included --confirmations 1 --branch [BLOCK_HASH]
and/or an external block explorer to make sure that it has been included.
This sequence of operations was run:
  Manager signed operations:
    From: [PUBLIC_KEY_HASH]
    Fee to the baker: ꜩ0.000698
    Expected counter: 22
    Gas limit: 1766
    Storage limit: 0 bytes
    Balance updates:
      [PUBLIC_KEY_HASH] ... -ꜩ0.000698
      payload fees(the block proposer) ....... +ꜩ0.000698
    Add a message to the inbox of the smart contract rollup at address [SC_ROLLUP_HASH]
      This smart contract rollup messages submission was successfully applied
      Consumed gas: 1665.592
      Resulting inbox state: 
         rollup = [SC_ROLLUP_HASH]
         level = 23
         current messages hash  = [SC_ROLLUP_INBOX_HASH]
         nb_available_messages = 231
         nb_messages_in_commitment_period = 231
         starting_level_of_current_commitment_period = 2
         message_counter = 21
         old_levels_messages = 
       content = [SC_ROLLUP_INBOX_HASH]
       index = 21
       back_pointers = [SC_ROLLUP_INBOX_HASH]
      [SC_ROLLUP_INBOX_HASH]
      [SC_ROLLUP_INBOX_HASH]
      [SC_ROLLUP_INBOX_HASH]
      [SC_ROLLUP_INBOX_HASH]
    
    


./tezos-client --wait none send sc rollup message 'text:["CAFEBABE","CAFEBABE","CAFEBABE","CAFEBABE","CAFEBABE","CAFEBABE","CAFEBABE","CAFEBABE","CAFEBABE","CAFEBABE","CAFEBABE","CAFEBABE","CAFEBABE","CAFEBABE","CAFEBABE","CAFEBABE","CAFEBABE","CAFEBABE","CAFEBABE","CAFEBABE","CAFEBABE","CAFEBABE"]' from bootstrap1 to '[SC_ROLLUP_HASH]'
Node is bootstrapped.
Estimated gas: 1666.232 units (will add 100 for safety)
Estimated storage: no bytes added
Operation successfully injected in the node.
Operation hash is '[OPERATION_HASH]'
NOT waiting for the operation to be included.
Use command
  tezos-client wait for [OPERATION_HASH] to be included --confirmations 1 --branch [BLOCK_HASH]
and/or an external block explorer to make sure that it has been included.
This sequence of operations was run:
  Manager signed operations:
    From: [PUBLIC_KEY_HASH]
    Fee to the baker: ꜩ0.00071
    Expected counter: 23
    Gas limit: 1767
    Storage limit: 0 bytes
    Balance updates:
      [PUBLIC_KEY_HASH] ... -ꜩ0.00071
      payload fees(the block proposer) ....... +ꜩ0.00071
    Add a message to the inbox of the smart contract rollup at address [SC_ROLLUP_HASH]
      This smart contract rollup messages submission was successfully applied
      Consumed gas: 1666.232
      Resulting inbox state: 
         rollup = [SC_ROLLUP_HASH]
         level = 24
         current messages hash  = [SC_ROLLUP_INBOX_HASH]
         nb_available_messages = 253
         nb_messages_in_commitment_period = 253
         starting_level_of_current_commitment_period = 2
         message_counter = 22
         old_levels_messages = 
       content = [SC_ROLLUP_INBOX_HASH]
       index = 22
       back_pointers = [SC_ROLLUP_INBOX_HASH]
      [SC_ROLLUP_INBOX_HASH]
      [SC_ROLLUP_INBOX_HASH]
      [SC_ROLLUP_INBOX_HASH]
      [SC_ROLLUP_INBOX_HASH]
    
    


./tezos-client --wait none send sc rollup message 'text:["CAFEBABE","CAFEBABE","CAFEBABE","CAFEBABE","CAFEBABE","CAFEBABE","CAFEBABE","CAFEBABE","CAFEBABE","CAFEBABE","CAFEBABE","CAFEBABE","CAFEBABE","CAFEBABE","CAFEBABE","CAFEBABE","CAFEBABE","CAFEBABE","CAFEBABE","CAFEBABE","CAFEBABE","CAFEBABE","CAFEBABE"]' from bootstrap1 to '[SC_ROLLUP_HASH]'
Node is bootstrapped.
Estimated gas: 1666.872 units (will add 100 for safety)
Estimated storage: no bytes added
Operation successfully injected in the node.
Operation hash is '[OPERATION_HASH]'
NOT waiting for the operation to be included.
Use command
  tezos-client wait for [OPERATION_HASH] to be included --confirmations 1 --branch [BLOCK_HASH]
and/or an external block explorer to make sure that it has been included.
This sequence of operations was run:
  Manager signed operations:
    From: [PUBLIC_KEY_HASH]
    Fee to the baker: ꜩ0.000722
    Expected counter: 24
    Gas limit: 1767
    Storage limit: 0 bytes
    Balance updates:
      [PUBLIC_KEY_HASH] ... -ꜩ0.000722
      payload fees(the block proposer) ....... +ꜩ0.000722
    Add a message to the inbox of the smart contract rollup at address [SC_ROLLUP_HASH]
      This smart contract rollup messages submission was successfully applied
      Consumed gas: 1666.872
      Resulting inbox state: 
         rollup = [SC_ROLLUP_HASH]
         level = 25
         current messages hash  = [SC_ROLLUP_INBOX_HASH]
         nb_available_messages = 276
         nb_messages_in_commitment_period = 276
         starting_level_of_current_commitment_period = 2
         message_counter = 23
         old_levels_messages = 
       content = [SC_ROLLUP_INBOX_HASH]
       index = 23
       back_pointers = [SC_ROLLUP_INBOX_HASH]
      [SC_ROLLUP_INBOX_HASH]
      [SC_ROLLUP_INBOX_HASH]
      [SC_ROLLUP_INBOX_HASH]
      [SC_ROLLUP_INBOX_HASH]
    
    


./tezos-client --wait none send sc rollup message 'text:["CAFEBABE","CAFEBABE","CAFEBABE","CAFEBABE","CAFEBABE","CAFEBABE","CAFEBABE","CAFEBABE","CAFEBABE","CAFEBABE","CAFEBABE","CAFEBABE","CAFEBABE","CAFEBABE","CAFEBABE","CAFEBABE","CAFEBABE","CAFEBABE","CAFEBABE","CAFEBABE","CAFEBABE","CAFEBABE","CAFEBABE","CAFEBABE"]' from bootstrap1 to '[SC_ROLLUP_HASH]'
Node is bootstrapped.
Estimated gas: 1667.512 units (will add 100 for safety)
Estimated storage: no bytes added
Operation successfully injected in the node.
Operation hash is '[OPERATION_HASH]'
NOT waiting for the operation to be included.
Use command
  tezos-client wait for [OPERATION_HASH] to be included --confirmations 1 --branch [BLOCK_HASH]
and/or an external block explorer to make sure that it has been included.
This sequence of operations was run:
  Manager signed operations:
    From: [PUBLIC_KEY_HASH]
    Fee to the baker: ꜩ0.000734
    Expected counter: 25
    Gas limit: 1768
    Storage limit: 0 bytes
    Balance updates:
      [PUBLIC_KEY_HASH] ... -ꜩ0.000734
      payload fees(the block proposer) ....... +ꜩ0.000734
    Add a message to the inbox of the smart contract rollup at address [SC_ROLLUP_HASH]
      This smart contract rollup messages submission was successfully applied
      Consumed gas: 1667.512
      Resulting inbox state: 
         rollup = [SC_ROLLUP_HASH]
         level = 26
         current messages hash  = [SC_ROLLUP_INBOX_HASH]
         nb_available_messages = 300
         nb_messages_in_commitment_period = 300
         starting_level_of_current_commitment_period = 2
         message_counter = 24
         old_levels_messages = 
       content = [SC_ROLLUP_INBOX_HASH]
       index = 24
       back_pointers = [SC_ROLLUP_INBOX_HASH]
      [SC_ROLLUP_INBOX_HASH]
      [SC_ROLLUP_INBOX_HASH]
      [SC_ROLLUP_INBOX_HASH]
      [SC_ROLLUP_INBOX_HASH]
    
    


./tezos-client --wait none send sc rollup message 'text:["CAFEBABE","CAFEBABE","CAFEBABE","CAFEBABE","CAFEBABE","CAFEBABE","CAFEBABE","CAFEBABE","CAFEBABE","CAFEBABE","CAFEBABE","CAFEBABE","CAFEBABE","CAFEBABE","CAFEBABE","CAFEBABE","CAFEBABE","CAFEBABE","CAFEBABE","CAFEBABE","CAFEBABE","CAFEBABE","CAFEBABE","CAFEBABE","CAFEBABE"]' from bootstrap1 to '[SC_ROLLUP_HASH]'
Node is bootstrapped.
Estimated gas: 1668.152 units (will add 100 for safety)
Estimated storage: no bytes added
Operation successfully injected in the node.
Operation hash is '[OPERATION_HASH]'
NOT waiting for the operation to be included.
Use command
  tezos-client wait for [OPERATION_HASH] to be included --confirmations 1 --branch [BLOCK_HASH]
and/or an external block explorer to make sure that it has been included.
This sequence of operations was run:
  Manager signed operations:
    From: [PUBLIC_KEY_HASH]
    Fee to the baker: ꜩ0.000746
    Expected counter: 26
    Gas limit: 1769
    Storage limit: 0 bytes
    Balance updates:
      [PUBLIC_KEY_HASH] ... -ꜩ0.000746
      payload fees(the block proposer) ....... +ꜩ0.000746
    Add a message to the inbox of the smart contract rollup at address [SC_ROLLUP_HASH]
      This smart contract rollup messages submission was successfully applied
      Consumed gas: 1668.152
      Resulting inbox state: 
         rollup = [SC_ROLLUP_HASH]
         level = 27
         current messages hash  = [SC_ROLLUP_INBOX_HASH]
         nb_available_messages = 325
         nb_messages_in_commitment_period = 325
         starting_level_of_current_commitment_period = 2
         message_counter = 25
         old_levels_messages = 
       content = [SC_ROLLUP_INBOX_HASH]
       index = 25
       back_pointers = [SC_ROLLUP_INBOX_HASH]
      [SC_ROLLUP_INBOX_HASH]
      [SC_ROLLUP_INBOX_HASH]
      [SC_ROLLUP_INBOX_HASH]
      [SC_ROLLUP_INBOX_HASH]
    
    


./tezos-client --wait none send sc rollup message 'text:["CAFEBABE","CAFEBABE","CAFEBABE","CAFEBABE","CAFEBABE","CAFEBABE","CAFEBABE","CAFEBABE","CAFEBABE","CAFEBABE","CAFEBABE","CAFEBABE","CAFEBABE","CAFEBABE","CAFEBABE","CAFEBABE","CAFEBABE","CAFEBABE","CAFEBABE","CAFEBABE","CAFEBABE","CAFEBABE","CAFEBABE","CAFEBABE","CAFEBABE","CAFEBABE"]' from bootstrap1 to '[SC_ROLLUP_HASH]'
Node is bootstrapped.
Estimated gas: 1668.792 units (will add 100 for safety)
Estimated storage: no bytes added
Operation successfully injected in the node.
Operation hash is '[OPERATION_HASH]'
NOT waiting for the operation to be included.
Use command
  tezos-client wait for [OPERATION_HASH] to be included --confirmations 1 --branch [BLOCK_HASH]
and/or an external block explorer to make sure that it has been included.
This sequence of operations was run:
  Manager signed operations:
    From: [PUBLIC_KEY_HASH]
    Fee to the baker: ꜩ0.000758
    Expected counter: 27
    Gas limit: 1769
    Storage limit: 0 bytes
    Balance updates:
      [PUBLIC_KEY_HASH] ... -ꜩ0.000758
      payload fees(the block proposer) ....... +ꜩ0.000758
    Add a message to the inbox of the smart contract rollup at address [SC_ROLLUP_HASH]
      This smart contract rollup messages submission was successfully applied
      Consumed gas: 1668.792
      Resulting inbox state: 
         rollup = [SC_ROLLUP_HASH]
         level = 28
         current messages hash  = [SC_ROLLUP_INBOX_HASH]
         nb_available_messages = 351
         nb_messages_in_commitment_period = 351
         starting_level_of_current_commitment_period = 2
         message_counter = 26
         old_levels_messages = 
       content = [SC_ROLLUP_INBOX_HASH]
       index = 26
       back_pointers = [SC_ROLLUP_INBOX_HASH]
      [SC_ROLLUP_INBOX_HASH]
      [SC_ROLLUP_INBOX_HASH]
      [SC_ROLLUP_INBOX_HASH]
      [SC_ROLLUP_INBOX_HASH]
    
    


./tezos-client --wait none send sc rollup message 'text:["CAFEBABE","CAFEBABE","CAFEBABE","CAFEBABE","CAFEBABE","CAFEBABE","CAFEBABE","CAFEBABE","CAFEBABE","CAFEBABE","CAFEBABE","CAFEBABE","CAFEBABE","CAFEBABE","CAFEBABE","CAFEBABE","CAFEBABE","CAFEBABE","CAFEBABE","CAFEBABE","CAFEBABE","CAFEBABE","CAFEBABE","CAFEBABE","CAFEBABE","CAFEBABE","CAFEBABE"]' from bootstrap1 to '[SC_ROLLUP_HASH]'
Node is bootstrapped.
Estimated gas: 1669.432 units (will add 100 for safety)
Estimated storage: no bytes added
Operation successfully injected in the node.
Operation hash is '[OPERATION_HASH]'
NOT waiting for the operation to be included.
Use command
  tezos-client wait for [OPERATION_HASH] to be included --confirmations 1 --branch [BLOCK_HASH]
and/or an external block explorer to make sure that it has been included.
This sequence of operations was run:
  Manager signed operations:
    From: [PUBLIC_KEY_HASH]
    Fee to the baker: ꜩ0.00077
    Expected counter: 28
    Gas limit: 1770
    Storage limit: 0 bytes
    Balance updates:
      [PUBLIC_KEY_HASH] ... -ꜩ0.00077
      payload fees(the block proposer) ....... +ꜩ0.00077
    Add a message to the inbox of the smart contract rollup at address [SC_ROLLUP_HASH]
      This smart contract rollup messages submission was successfully applied
      Consumed gas: 1669.432
      Resulting inbox state: 
         rollup = [SC_ROLLUP_HASH]
         level = 29
         current messages hash  = [SC_ROLLUP_INBOX_HASH]
         nb_available_messages = 378
         nb_messages_in_commitment_period = 378
         starting_level_of_current_commitment_period = 2
         message_counter = 27
         old_levels_messages = 
       content = [SC_ROLLUP_INBOX_HASH]
       index = 27
       back_pointers = [SC_ROLLUP_INBOX_HASH]
      [SC_ROLLUP_INBOX_HASH]
      [SC_ROLLUP_INBOX_HASH]
      [SC_ROLLUP_INBOX_HASH]
      [SC_ROLLUP_INBOX_HASH]
    
    


./tezos-client --wait none send sc rollup message 'text:["CAFEBABE","CAFEBABE","CAFEBABE","CAFEBABE","CAFEBABE","CAFEBABE","CAFEBABE","CAFEBABE","CAFEBABE","CAFEBABE","CAFEBABE","CAFEBABE","CAFEBABE","CAFEBABE","CAFEBABE","CAFEBABE","CAFEBABE","CAFEBABE","CAFEBABE","CAFEBABE","CAFEBABE","CAFEBABE","CAFEBABE","CAFEBABE","CAFEBABE","CAFEBABE","CAFEBABE","CAFEBABE"]' from bootstrap1 to '[SC_ROLLUP_HASH]'
Node is bootstrapped.
Estimated gas: 1670.072 units (will add 100 for safety)
Estimated storage: no bytes added
Operation successfully injected in the node.
Operation hash is '[OPERATION_HASH]'
NOT waiting for the operation to be included.
Use command
  tezos-client wait for [OPERATION_HASH] to be included --confirmations 1 --branch [BLOCK_HASH]
and/or an external block explorer to make sure that it has been included.
This sequence of operations was run:
  Manager signed operations:
    From: [PUBLIC_KEY_HASH]
    Fee to the baker: ꜩ0.000783
    Expected counter: 29
    Gas limit: 1771
    Storage limit: 0 bytes
    Balance updates:
      [PUBLIC_KEY_HASH] ... -ꜩ0.000783
      payload fees(the block proposer) ....... +ꜩ0.000783
    Add a message to the inbox of the smart contract rollup at address [SC_ROLLUP_HASH]
      This smart contract rollup messages submission was successfully applied
      Consumed gas: 1670.072
      Resulting inbox state: 
         rollup = [SC_ROLLUP_HASH]
         level = 30
         current messages hash  = [SC_ROLLUP_INBOX_HASH]
         nb_available_messages = 406
         nb_messages_in_commitment_period = 406
         starting_level_of_current_commitment_period = 2
         message_counter = 28
         old_levels_messages = 
       content = [SC_ROLLUP_INBOX_HASH]
       index = 28
       back_pointers = [SC_ROLLUP_INBOX_HASH]
      [SC_ROLLUP_INBOX_HASH]
      [SC_ROLLUP_INBOX_HASH]
      [SC_ROLLUP_INBOX_HASH]
      [SC_ROLLUP_INBOX_HASH]
    
    


./tezos-client --wait none send sc rollup message 'text:["CAFEBABE","CAFEBABE","CAFEBABE","CAFEBABE","CAFEBABE","CAFEBABE","CAFEBABE","CAFEBABE","CAFEBABE","CAFEBABE","CAFEBABE","CAFEBABE","CAFEBABE","CAFEBABE","CAFEBABE","CAFEBABE","CAFEBABE","CAFEBABE","CAFEBABE","CAFEBABE","CAFEBABE","CAFEBABE","CAFEBABE","CAFEBABE","CAFEBABE","CAFEBABE","CAFEBABE","CAFEBABE","CAFEBABE"]' from bootstrap1 to '[SC_ROLLUP_HASH]'
Node is bootstrapped.
Estimated gas: 1670.712 units (will add 100 for safety)
Estimated storage: no bytes added
Operation successfully injected in the node.
Operation hash is '[OPERATION_HASH]'
NOT waiting for the operation to be included.
Use command
  tezos-client wait for [OPERATION_HASH] to be included --confirmations 1 --branch [BLOCK_HASH]
and/or an external block explorer to make sure that it has been included.
This sequence of operations was run:
  Manager signed operations:
    From: [PUBLIC_KEY_HASH]
    Fee to the baker: ꜩ0.000795
    Expected counter: 30
    Gas limit: 1771
    Storage limit: 0 bytes
    Balance updates:
      [PUBLIC_KEY_HASH] ... -ꜩ0.000795
      payload fees(the block proposer) ....... +ꜩ0.000795
    Add a message to the inbox of the smart contract rollup at address [SC_ROLLUP_HASH]
      This smart contract rollup messages submission was successfully applied
      Consumed gas: 1670.712
      Resulting inbox state: 
         rollup = [SC_ROLLUP_HASH]
         level = 31
         current messages hash  = [SC_ROLLUP_INBOX_HASH]
         nb_available_messages = 435
         nb_messages_in_commitment_period = 435
         starting_level_of_current_commitment_period = 2
         message_counter = 29
         old_levels_messages = 
       content = [SC_ROLLUP_INBOX_HASH]
       index = 29
       back_pointers = [SC_ROLLUP_INBOX_HASH]
      [SC_ROLLUP_INBOX_HASH]
      [SC_ROLLUP_INBOX_HASH]
      [SC_ROLLUP_INBOX_HASH]
      [SC_ROLLUP_INBOX_HASH]
    
    


./tezos-client --wait none send sc rollup message 'text:["CAFEBABE","CAFEBABE","CAFEBABE","CAFEBABE","CAFEBABE","CAFEBABE","CAFEBABE","CAFEBABE","CAFEBABE","CAFEBABE","CAFEBABE","CAFEBABE","CAFEBABE","CAFEBABE","CAFEBABE","CAFEBABE","CAFEBABE","CAFEBABE","CAFEBABE","CAFEBABE","CAFEBABE","CAFEBABE","CAFEBABE","CAFEBABE","CAFEBABE","CAFEBABE","CAFEBABE","CAFEBABE","CAFEBABE","CAFEBABE"]' from bootstrap1 to '[SC_ROLLUP_HASH]'
Node is bootstrapped.
Estimated gas: 1671.352 units (will add 100 for safety)
Estimated storage: no bytes added
Operation successfully injected in the node.
Operation hash is '[OPERATION_HASH]'
NOT waiting for the operation to be included.
Use command
  tezos-client wait for [OPERATION_HASH] to be included --confirmations 1 --branch [BLOCK_HASH]
and/or an external block explorer to make sure that it has been included.
This sequence of operations was run:
  Manager signed operations:
    From: [PUBLIC_KEY_HASH]
    Fee to the baker: ꜩ0.000807
    Expected counter: 31
    Gas limit: 1772
    Storage limit: 0 bytes
    Balance updates:
      [PUBLIC_KEY_HASH] ... -ꜩ0.000807
      payload fees(the block proposer) ....... +ꜩ0.000807
    Add a message to the inbox of the smart contract rollup at address [SC_ROLLUP_HASH]
      This smart contract rollup messages submission was successfully applied
      Consumed gas: 1671.352
      Resulting inbox state: 
         rollup = [SC_ROLLUP_HASH]
         level = 32
         current messages hash  = [SC_ROLLUP_INBOX_HASH]
         nb_available_messages = 465
         nb_messages_in_commitment_period = 30
         starting_level_of_current_commitment_period = 32
         message_counter = 30
         old_levels_messages = 
       content = [SC_ROLLUP_INBOX_HASH]
       index = 30
       back_pointers = [SC_ROLLUP_INBOX_HASH]
      [SC_ROLLUP_INBOX_HASH]
      [SC_ROLLUP_INBOX_HASH]
      [SC_ROLLUP_INBOX_HASH]
      [SC_ROLLUP_INBOX_HASH]
    
    


./tezos-sc-rollup-client-alpha rpc get /global/last_stored_commitment
{ "commitment":
    { "compressed_state":
        "scs12x8QREtVeFDNLugdWQ8ChxZfQye7upbuTwsZYp65QEUN1UX6Cw",
      "inbox_level": 32,
      "predecessor": "[SC_ROLLUP_COMMITMENT_HASH]",
      "number_of_messages": 465, "number_of_ticks": 1396 },
  "hash": "[SC_ROLLUP_COMMITMENT_HASH]" }

./tezos-sc-rollup-client-alpha rpc get /local/last_published_commitment
{ "commitment":
    { "compressed_state":
        "scs12x8QREtVeFDNLugdWQ8ChxZfQye7upbuTwsZYp65QEUN1UX6Cw",
      "inbox_level": 32,
      "predecessor": "[SC_ROLLUP_COMMITMENT_HASH]",
      "number_of_messages": 465, "number_of_ticks": 1396 },
  "hash": "[SC_ROLLUP_COMMITMENT_HASH]",
  "published_at_level": 35 }
