
./tezos-client --wait none originate sc rollup from '[PUBLIC_KEY_HASH]' of kind arith of type unit booting with  --burn-cap 9999999
Node is bootstrapped.
Estimated gas: 1800.800 units (will add 100 for safety)
Estimated storage: 6541 bytes added (will add 20 for safety)
Operation successfully injected in the node.
Operation hash is '[OPERATION_HASH]'
NOT waiting for the operation to be included.
Use command
  tezos-client wait for [OPERATION_HASH] to be included --confirmations 1 --branch [BLOCK_HASH]
and/or an external block explorer to make sure that it has been included.
This sequence of operations was run:
  Manager signed operations:
    From: [PUBLIC_KEY_HASH]
    Fee to the baker: ꜩ0.000428
    Expected counter: 1
    Gas limit: 1901
    Storage limit: 6561 bytes
    Balance updates:
      [PUBLIC_KEY_HASH] ... -ꜩ0.000428
      payload fees(the block proposer) ....... +ꜩ0.000428
    Originate smart contract rollup of kind arith and type unit with boot sector ''
      This smart contract rollup origination was successfully applied
      Consumed gas: 1800.800
      Storage size: 6541 bytes
      Address: [SC_ROLLUP_HASH]
      Balance updates:
        [PUBLIC_KEY_HASH] ... -ꜩ1.63525
        storage fees ........................... +ꜩ1.63525


./tezos-client rpc get '/chains/main/blocks/head/context/sc_rollup/[SC_ROLLUP_HASH]/initial_level'
2

./tezos-sc-rollup-client-alpha rpc get /global/last_stored_commitment
{ "commitment":
    { "compressed_state":
        "scs11VNjWyZw4Tgbvsom8epQbox86S2CKkE1UAZkXMM7Pj8MQMLzMf",
      "inbox_level": 32,
      "predecessor": "[SC_ROLLUP_COMMITMENT_HASH]",
      "number_of_messages": 0, "number_of_ticks": 0 },
  "hash": "[SC_ROLLUP_COMMITMENT_HASH]" }

./tezos-sc-rollup-client-alpha rpc get /local/last_published_commitment
{ "commitment":
    { "compressed_state":
        "scs11VNjWyZw4Tgbvsom8epQbox86S2CKkE1UAZkXMM7Pj8MQMLzMf",
      "inbox_level": 32,
      "predecessor": "[SC_ROLLUP_COMMITMENT_HASH]",
      "number_of_messages": 0, "number_of_ticks": 0 },
  "hash": "[SC_ROLLUP_COMMITMENT_HASH]",
  "published_at_level": 35 }

./tezos-client rpc get /chains/main/blocks/head/context/constants
{ "proof_of_work_nonce_size": 8, "nonce_length": 32,
  "max_anon_ops_per_block": 132, "max_operation_data_length": 32768,
  "max_proposals_per_delegate": 20, "max_micheline_node_count": 50000,
  "max_micheline_bytes_limit": 50000,
  "max_allowed_global_constants_depth": 10000, "cache_layout_size": 3,
  "michelson_maximum_type_size": 2001,
  "max_wrapped_proof_binary_size": 30000, "preserved_cycles": 2,
  "blocks_per_cycle": 8, "blocks_per_commitment": 4,
  "blocks_per_stake_snapshot": 4, "cycles_per_voting_period": 8,
  "hard_gas_limit_per_operation": "1040000",
  "hard_gas_limit_per_block": "5200000", "proof_of_work_threshold": "-1",
  "tokens_per_roll": "6000000000", "seed_nonce_revelation_tip": "125000",
  "origination_size": 257, "baking_reward_fixed_portion": "333333",
  "baking_reward_bonus_per_slot": "3921",
  "endorsing_reward_per_slot": "2604", "cost_per_byte": "250",
  "hard_storage_limit_per_operation": "60000", "quorum_min": 2000,
  "quorum_max": 7000, "min_proposal_quorum": 500,
  "liquidity_baking_subsidy": "2500000",
  "liquidity_baking_sunset_level": 128,
  "liquidity_baking_toggle_ema_threshold": 1000000000,
  "max_operations_time_to_live": 120, "minimal_block_delay": "1",
  "delay_increment_per_round": "1", "consensus_committee_size": 256,
  "consensus_threshold": 0,
  "minimal_participation_ratio": { "numerator": 2, "denominator": 3 },
  "max_slashing_period": 2, "frozen_deposits_percentage": 5,
  "double_baking_punishment": "640000000",
  "ratio_of_frozen_deposits_slashed_per_double_endorsement":
    { "numerator": 1, "denominator": 2 }, "cache_script_size": 100000000,
  "cache_stake_distribution_cycles": 8, "cache_sampler_state_cycles": 8,
  "tx_rollup_enable": true, "tx_rollup_origination_size": 4000,
  "tx_rollup_hard_size_limit_per_inbox": 500000,
  "tx_rollup_hard_size_limit_per_message": 5000,
  "tx_rollup_max_withdrawals_per_batch": 15,
  "tx_rollup_commitment_bond": "10000000000",
  "tx_rollup_finality_period": 40000, "tx_rollup_withdraw_period": 40000,
  "tx_rollup_max_inboxes_count": 40100,
  "tx_rollup_max_messages_per_inbox": 1010,
  "tx_rollup_max_commitments_count": 80100,
  "tx_rollup_cost_per_byte_ema_factor": 120,
  "tx_rollup_max_ticket_payload_size": 2048,
  "tx_rollup_rejection_max_proof_size": 30000,
  "tx_rollup_sunset_level": 3473409,
  "dal_parametric":
    { "feature_enable": false, "number_of_slots": 16,
      "number_of_shards": 256, "endorsement_lag": 1,
      "availability_threshold": 50 }, "sc_rollup_enable": true,
  "sc_rollup_origination_size": 6314,
  "sc_rollup_challenge_window_in_blocks": 1,
  "sc_rollup_max_available_messages": 1000000,
  "sc_rollup_stake_amount": "32000000",
  "sc_rollup_commitment_period_in_blocks": 30,
  "sc_rollup_max_lookahead_in_blocks": 30000,
  "sc_rollup_max_active_outbox_levels": 20160,
  "sc_rollup_max_outbox_messages_per_level": 100 }

./tezos-client --wait none recover bond of '[PUBLIC_KEY_HASH]' for sc rollup '[SC_ROLLUP_HASH]' --fee 1
Node is bootstrapped.
This simulation failed:
  Manager signed operations:
    From: [PUBLIC_KEY_HASH]
    Fee to the baker: ꜩ1
    Expected counter: 3
    Gas limit: 1040000
    Storage limit: 60000 bytes
    Balance updates:
      [PUBLIC_KEY_HASH] ... -ꜩ1
      payload fees(the block proposer) ....... +ꜩ1
    Sc rollup recover commitment bond:[SC_ROLLUP_HASH] 
      From: [PUBLIC_KEY_HASH]
      This operation FAILED.

Error:
  Attempted to withdraw while not staked on the last cemented commitment.

./tezos-client --wait none cement commitment '[SC_ROLLUP_COMMITMENT_HASH]' from bootstrap1 for sc rollup '[SC_ROLLUP_HASH]'
Node is bootstrapped.
Estimated gas: 3451.204 units (will add 100 for safety)
Estimated storage: no bytes added
Operation successfully injected in the node.
Operation hash is '[OPERATION_HASH]'
NOT waiting for the operation to be included.
Use command
  tezos-client wait for [OPERATION_HASH] to be included --confirmations 1 --branch [BLOCK_HASH]
and/or an external block explorer to make sure that it has been included.
This sequence of operations was run:
  Manager signed operations:
    From: [PUBLIC_KEY_HASH]
    Fee to the baker: ꜩ0.000653
    Expected counter: 3
    Gas limit: 3552
    Storage limit: 0 bytes
    Balance updates:
      [PUBLIC_KEY_HASH] ... -ꜩ0.000653
      payload fees(the block proposer) ....... +ꜩ0.000653
    Cement the commitment [SC_ROLLUP_COMMITMENT_HASH] in the smart contract rollup at address [SC_ROLLUP_HASH]
      This smart contract rollup commitment cementing was successfully applied
      Consumed gas: 3451.204


./tezos-client rpc get /chains/main/blocks/head/context/constants
{ "proof_of_work_nonce_size": 8, "nonce_length": 32,
  "max_anon_ops_per_block": 132, "max_operation_data_length": 32768,
  "max_proposals_per_delegate": 20, "max_micheline_node_count": 50000,
  "max_micheline_bytes_limit": 50000,
  "max_allowed_global_constants_depth": 10000, "cache_layout_size": 3,
  "michelson_maximum_type_size": 2001,
  "max_wrapped_proof_binary_size": 30000, "preserved_cycles": 2,
  "blocks_per_cycle": 8, "blocks_per_commitment": 4,
  "blocks_per_stake_snapshot": 4, "cycles_per_voting_period": 8,
  "hard_gas_limit_per_operation": "1040000",
  "hard_gas_limit_per_block": "5200000", "proof_of_work_threshold": "-1",
  "tokens_per_roll": "6000000000", "seed_nonce_revelation_tip": "125000",
  "origination_size": 257, "baking_reward_fixed_portion": "333333",
  "baking_reward_bonus_per_slot": "3921",
  "endorsing_reward_per_slot": "2604", "cost_per_byte": "250",
  "hard_storage_limit_per_operation": "60000", "quorum_min": 2000,
  "quorum_max": 7000, "min_proposal_quorum": 500,
  "liquidity_baking_subsidy": "2500000",
  "liquidity_baking_sunset_level": 128,
  "liquidity_baking_toggle_ema_threshold": 1000000000,
  "max_operations_time_to_live": 120, "minimal_block_delay": "1",
  "delay_increment_per_round": "1", "consensus_committee_size": 256,
  "consensus_threshold": 0,
  "minimal_participation_ratio": { "numerator": 2, "denominator": 3 },
  "max_slashing_period": 2, "frozen_deposits_percentage": 5,
  "double_baking_punishment": "640000000",
  "ratio_of_frozen_deposits_slashed_per_double_endorsement":
    { "numerator": 1, "denominator": 2 }, "cache_script_size": 100000000,
  "cache_stake_distribution_cycles": 8, "cache_sampler_state_cycles": 8,
  "tx_rollup_enable": true, "tx_rollup_origination_size": 4000,
  "tx_rollup_hard_size_limit_per_inbox": 500000,
  "tx_rollup_hard_size_limit_per_message": 5000,
  "tx_rollup_max_withdrawals_per_batch": 15,
  "tx_rollup_commitment_bond": "10000000000",
  "tx_rollup_finality_period": 40000, "tx_rollup_withdraw_period": 40000,
  "tx_rollup_max_inboxes_count": 40100,
  "tx_rollup_max_messages_per_inbox": 1010,
  "tx_rollup_max_commitments_count": 80100,
  "tx_rollup_cost_per_byte_ema_factor": 120,
  "tx_rollup_max_ticket_payload_size": 2048,
  "tx_rollup_rejection_max_proof_size": 30000,
  "tx_rollup_sunset_level": 3473409,
  "dal_parametric":
    { "feature_enable": false, "number_of_slots": 16,
      "number_of_shards": 256, "endorsement_lag": 1,
      "availability_threshold": 50 }, "sc_rollup_enable": true,
  "sc_rollup_origination_size": 6314,
  "sc_rollup_challenge_window_in_blocks": 1,
  "sc_rollup_max_available_messages": 1000000,
  "sc_rollup_stake_amount": "32000000",
  "sc_rollup_commitment_period_in_blocks": 30,
  "sc_rollup_max_lookahead_in_blocks": 30000,
  "sc_rollup_max_active_outbox_levels": 20160,
  "sc_rollup_max_outbox_messages_per_level": 100 }

./tezos-client --wait none recover bond of '[PUBLIC_KEY_HASH]' for sc rollup '[SC_ROLLUP_HASH]' --fee 1
Node is bootstrapped.
Estimated gas: 3205.160 units (will add 100 for safety)
Estimated storage: no bytes added
Operation successfully injected in the node.
Operation hash is '[OPERATION_HASH]'
NOT waiting for the operation to be included.
Use command
  tezos-client wait for [OPERATION_HASH] to be included --confirmations 1 --branch [BLOCK_HASH]
and/or an external block explorer to make sure that it has been included.
This sequence of operations was run:
  Manager signed operations:
    From: [PUBLIC_KEY_HASH]
    Fee to the baker: ꜩ1
    Expected counter: 4
    Gas limit: 3306
    Storage limit: 0 bytes
    Balance updates:
      [PUBLIC_KEY_HASH] ... -ꜩ1
      payload fees(the block proposer) ....... +ꜩ1
    Sc rollup recover commitment bond:[SC_ROLLUP_HASH] 
      From: [PUBLIC_KEY_HASH]
      This smart contract bond retrieval was successfully applied
      Balance updates:
        Frozen_bonds([PUBLIC_KEY_HASH],[SC_ROLLUP_HASH]) ... -ꜩ32
        [PUBLIC_KEY_HASH] ....................................................... +ꜩ32
      Consumed gas: 3205.160


./tezos-sc-rollup-client-alpha rpc get /local/last_published_commitment
null

./tezos-sc-rollup-client-alpha rpc get /global/last_stored_commitment
{ "commitment":
    { "compressed_state":
        "scs11VNjWyZw4Tgbvsom8epQbox86S2CKkE1UAZkXMM7Pj8MQMLzMf",
      "inbox_level": 32,
      "predecessor": "[SC_ROLLUP_COMMITMENT_HASH]",
      "number_of_messages": 0, "number_of_ticks": 0 },
  "hash": "[SC_ROLLUP_COMMITMENT_HASH]" }

./tezos-sc-rollup-client-alpha rpc get /local/last_published_commitment
{ "commitment":
    { "compressed_state":
        "scs11VNjWyZw4Tgbvsom8epQbox86S2CKkE1UAZkXMM7Pj8MQMLzMf",
      "inbox_level": 62,
      "predecessor": "[SC_ROLLUP_COMMITMENT_HASH]",
      "number_of_messages": 0, "number_of_ticks": 0 },
  "hash": "[SC_ROLLUP_COMMITMENT_HASH]",
  "published_at_level": 65 }
